…
``` r
fish %>% 
  filter(tsid == "TCbest-MT", region == "Canada East Coast") %>%
  group_by(tsyear, scientificname) %>% 
  summarise(total_catch = sum(tsvalue), total_catch < .10*cummax(tsvalue)) %>%
  filter(scientificname == "Gadus morhua") 
```

    ## # A tibble: 882 x 4
    ## # Groups:   tsyear, scientificname [165]
    ##    tsyear scientificname total_catch `total_catch < 0.1 * cummax(tsvalue)`
    ##     <dbl> <chr>                <dbl> <lgl>                                
    ##  1   1850 Gadus morhua        133000 FALSE                                
    ##  2   1851 Gadus morhua        125000 FALSE                                
    ##  3   1852 Gadus morhua        120000 FALSE                                
    ##  4   1853 Gadus morhua        117000 FALSE                                
    ##  5   1854 Gadus morhua        104000 FALSE                                
    ##  6   1855 Gadus morhua        132000 FALSE                                
    ##  7   1856 Gadus morhua        151000 FALSE                                
    ##  8   1857 Gadus morhua        169000 FALSE                                
    ##  9   1858 Gadus morhua        134000 FALSE                                
    ## 10   1859 Gadus morhua        154000 FALSE                                
    ## # … with 872 more rows
…
``` r
collapse <- fish %>%
  filter(tsid == "TCbest-MT") %>%
  group_by(tsyear, scientificname) %>% 
  summarise(total_catch = sum(tsvalue, na.rm = TRUE)) %>%
  group_by(scientificname) %>%
  mutate(current_collapse = total_catch < 0.10 * cummax(total_catch),
         ever_collapsed = cumsum(current_collapse) > 0) %>%
  ungroup()

collapse
```

    ## # A tibble: 17,589 x 5
    ##    tsyear scientificname            total_catch current_collapse ever_collapsed
    ##     <dbl> <chr>                           <dbl> <lgl>            <lgl>         
    ##  1   1800 Hippoglossus hippoglossus           0 FALSE            FALSE         
    ##  2   1801 Hippoglossus hippoglossus           0 FALSE            FALSE         
    ##  3   1802 Hippoglossus hippoglossus           0 FALSE            FALSE         
    ##  4   1803 Hippoglossus hippoglossus           0 FALSE            FALSE         
    ##  5   1804 Hippoglossus hippoglossus           0 FALSE            FALSE         
    ##  6   1805 Hippoglossus hippoglossus           0 FALSE            FALSE         
    ##  7   1806 Hippoglossus hippoglossus           0 FALSE            FALSE         
    ##  8   1807 Hippoglossus hippoglossus           0 FALSE            FALSE         
    ##  9   1808 Hippoglossus hippoglossus           0 FALSE            FALSE         
    ## 10   1809 Hippoglossus hippoglossus           0 FALSE            FALSE         
    ## # … with 17,579 more rows

``` r
collapse %>%
  group_by(tsyear) %>%
  summarise(total_collapse = sum(current_collapse), cumulative_collase = sum(ever_collapsed)) 
```

    ## # A tibble: 219 x 3
    ##    tsyear total_collapse cumulative_collase
    ##     <dbl>          <int>              <int>
    ##  1   1800              0                  0
    ##  2   1801              0                  0
    ##  3   1802              0                  0
    ##  4   1803              0                  0
    ##  5   1804              0                  0
    ##  6   1805              0                  0
    ##  7   1806              0                  0
    ##  8   1807              0                  0
    ##  9   1808              0                  0
    ## 10   1809              0                  0
    ## # … with 209 more rows
…
